// Jest Snapshot v1, https://goo.gl/fbAQLP

exports[`JIRA wiki markup - Macros [CS-602] macro keyword is case insensitive 1`] = `
Object {
  "content": Array [
    Object {
      "attrs": Object {
        "panelType": "error",
      },
      "content": Array [
        Object {
          "content": Array [
            Object {
              "text": "red",
              "type": "text",
            },
          ],
          "type": "paragraph",
        },
      ],
      "type": "panel",
    },
  ],
  "type": "doc",
}
`;

exports[`JIRA wiki markup - Macros [CS-1470] code macro converts to code node with java language 1`] = `
Object {
  "content": Array [
    Object {
      "attrs": Object {
        "language": "java",
        "uniqueId": null,
      },
      "content": Array [
        Object {
          "text": "public static main(String test) {
        System.out.print(\\"test\\");
     }",
          "type": "text",
        },
      ],
      "type": "codeBlock",
    },
  ],
  "type": "doc",
}
`;

exports[`JIRA wiki markup - Macros [CS-1470] code macro converts to code node with xml language 1`] = `
Object {
  "content": Array [
    Object {
      "attrs": Object {
        "language": "xml",
        "uniqueId": null,
      },
      "content": Array [
        Object {
          "text": "<test attr='value'><nested/></test>",
          "type": "text",
        },
      ],
      "type": "codeBlock",
    },
  ],
  "type": "doc",
}
`;

exports[`JIRA wiki markup - Macros [CS-1470] noformat macro converts to code node with no language 1`] = `
Object {
  "content": Array [
    Object {
      "attrs": Object {
        "language": null,
        "uniqueId": null,
      },
      "content": Array [
        Object {
          "text": "preformatted
text
with
linebreaks",
          "type": "text",
        },
      ],
      "type": "codeBlock",
    },
  ],
  "type": "doc",
}
`;

exports[`JIRA wiki markup - Macros should allow pipes within colour macro, and not render as a table 1`] = `
Object {
  "content": Array [
    Object {
      "content": Array [
        Object {
          "marks": Array [
            Object {
              "attrs": Object {
                "color": "#6554c0",
              },
              "type": "textColor",
            },
          ],
          "text": "|",
          "type": "text",
        },
      ],
      "type": "paragraph",
    },
  ],
  "type": "doc",
}
`;

exports[`JIRA wiki markup - Macros should collapse and join outer macros 1`] = `
Object {
  "content": Array [
    Object {
      "attrs": Object {
        "panelType": "info",
      },
      "content": Array [
        Object {
          "content": Array [
            Object {
              "marks": Array [
                Object {
                  "type": "strong",
                },
              ],
              "text": "My Title",
              "type": "text",
            },
          ],
          "type": "paragraph",
        },
        Object {
          "content": Array [
            Object {
              "text": "This text is inside panel",
              "type": "text",
            },
          ],
          "type": "paragraph",
        },
      ],
      "type": "panel",
    },
    Object {
      "content": Array [
        Object {
          "type": "paragraph",
        },
      ],
      "type": "blockquote",
    },
    Object {
      "attrs": Object {
        "panelType": "info",
      },
      "content": Array [
        Object {
          "content": Array [
            Object {
              "text": "quote",
              "type": "text",
            },
          ],
          "type": "paragraph",
        },
      ],
      "type": "panel",
    },
    Object {
      "content": Array [
        Object {
          "text": "only quote",
          "type": "text",
        },
      ],
      "type": "paragraph",
    },
    Object {
      "content": Array [
        Object {
          "type": "paragraph",
        },
      ],
      "type": "blockquote",
    },
  ],
  "type": "doc",
}
`;

exports[`JIRA wiki markup - Macros should collapse outer macros 1`] = `
Object {
  "content": Array [
    Object {
      "attrs": Object {
        "panelType": "info",
      },
      "content": Array [
        Object {
          "content": Array [
            Object {
              "marks": Array [
                Object {
                  "type": "strong",
                },
              ],
              "text": "My Title",
              "type": "text",
            },
          ],
          "type": "paragraph",
        },
      ],
      "type": "panel",
    },
    Object {
      "content": Array [
        Object {
          "content": Array [
            Object {
              "text": "Panel with nested quote here",
              "type": "text",
            },
          ],
          "type": "paragraph",
        },
      ],
      "type": "blockquote",
    },
    Object {
      "content": Array [
        Object {
          "text": ".",
          "type": "text",
        },
      ],
      "type": "paragraph",
    },
  ],
  "type": "doc",
}
`;

exports[`JIRA wiki markup - Macros should convert multiple quotes containing string 1`] = `
Object {
  "content": Array [
    Object {
      "content": Array [
        Object {
          "text": "This is a ",
          "type": "text",
        },
      ],
      "type": "paragraph",
    },
    Object {
      "content": Array [
        Object {
          "content": Array [
            Object {
              "text": "quote1",
              "type": "text",
            },
          ],
          "type": "paragraph",
        },
      ],
      "type": "blockquote",
    },
    Object {
      "content": Array [
        Object {
          "content": Array [
            Object {
              "text": "quote2",
              "type": "text",
            },
          ],
          "type": "paragraph",
        },
      ],
      "type": "blockquote",
    },
  ],
  "type": "doc",
}
`;

exports[`JIRA wiki markup - Macros should convert panels 1`] = `
Object {
  "content": Array [
    Object {
      "attrs": Object {
        "panelType": "info",
      },
      "content": Array [
        Object {
          "content": Array [
            Object {
              "marks": Array [
                Object {
                  "type": "strong",
                },
              ],
              "text": "My Title",
              "type": "text",
            },
          ],
          "type": "paragraph",
        },
        Object {
          "content": Array [
            Object {
              "text": "Panel with nested quote here",
              "type": "text",
            },
          ],
          "type": "paragraph",
        },
      ],
      "type": "panel",
    },
  ],
  "type": "doc",
}
`;

exports[`JIRA wiki markup - Macros should convert simple quotes into a top level node 1`] = `
Object {
  "content": Array [
    Object {
      "content": Array [
        Object {
          "content": Array [
            Object {
              "text": "simple quote",
              "type": "text",
            },
          ],
          "type": "paragraph",
        },
      ],
      "type": "blockquote",
    },
  ],
  "type": "doc",
}
`;

exports[`JIRA wiki markup - Macros should convert string with quote into paragraph and quote 1`] = `
Object {
  "content": Array [
    Object {
      "content": Array [
        Object {
          "text": "this is a string with a ",
          "type": "text",
        },
      ],
      "type": "paragraph",
    },
    Object {
      "content": Array [
        Object {
          "content": Array [
            Object {
              "text": "quote",
              "type": "text",
            },
          ],
          "type": "paragraph",
        },
      ],
      "type": "blockquote",
    },
  ],
  "type": "doc",
}
`;

exports[`JIRA wiki markup - Macros should lift attachment node when it is inside macro 1`] = `
Object {
  "content": Array [
    Object {
      "attrs": Object {
        "panelType": "info",
      },
      "content": Array [
        Object {
          "content": Array [
            Object {
              "text": "this is a text",
              "type": "text",
            },
          ],
          "type": "paragraph",
        },
      ],
      "type": "panel",
    },
    Object {
      "content": Array [
        Object {
          "attrs": Object {
            "__contextId": null,
            "__displayType": null,
            "__external": false,
            "__fileMimeType": null,
            "__fileName": null,
            "__fileSize": null,
            "alt": null,
            "collection": "",
            "height": null,
            "id": "abc-file11",
            "occurrenceKey": null,
            "type": "file",
            "url": null,
            "width": null,
          },
          "type": "media",
        },
        Object {
          "attrs": Object {
            "__contextId": null,
            "__displayType": null,
            "__external": false,
            "__fileMimeType": null,
            "__fileName": null,
            "__fileSize": null,
            "alt": null,
            "collection": "",
            "height": null,
            "id": "abc-file12",
            "occurrenceKey": null,
            "type": "file",
            "url": null,
            "width": null,
          },
          "type": "media",
        },
        Object {
          "attrs": Object {
            "__contextId": null,
            "__displayType": null,
            "__external": false,
            "__fileMimeType": null,
            "__fileName": null,
            "__fileSize": null,
            "alt": null,
            "collection": "",
            "height": null,
            "id": "abc-file13",
            "occurrenceKey": null,
            "type": "file",
            "url": null,
            "width": null,
          },
          "type": "media",
        },
      ],
      "type": "mediaGroup",
    },
    Object {
      "attrs": Object {
        "panelType": "info",
      },
      "content": Array [
        Object {
          "type": "paragraph",
        },
      ],
      "type": "panel",
    },
    Object {
      "content": Array [
        Object {
          "attrs": Object {
            "__contextId": null,
            "__displayType": null,
            "__external": false,
            "__fileMimeType": null,
            "__fileName": null,
            "__fileSize": null,
            "alt": null,
            "collection": "",
            "height": null,
            "id": "abc-file21",
            "occurrenceKey": null,
            "type": "file",
            "url": null,
            "width": null,
          },
          "type": "media",
        },
        Object {
          "attrs": Object {
            "__contextId": null,
            "__displayType": null,
            "__external": false,
            "__fileMimeType": null,
            "__fileName": null,
            "__fileSize": null,
            "alt": null,
            "collection": "",
            "height": null,
            "id": "abc-file22",
            "occurrenceKey": null,
            "type": "file",
            "url": null,
            "width": null,
          },
          "type": "media",
        },
        Object {
          "attrs": Object {
            "__contextId": null,
            "__displayType": null,
            "__external": false,
            "__fileMimeType": null,
            "__fileName": null,
            "__fileSize": null,
            "alt": null,
            "collection": "",
            "height": null,
            "id": "abc-file23",
            "occurrenceKey": null,
            "type": "file",
            "url": null,
            "width": null,
          },
          "type": "media",
        },
        Object {
          "attrs": Object {
            "__contextId": null,
            "__displayType": null,
            "__external": false,
            "__fileMimeType": null,
            "__fileName": null,
            "__fileSize": null,
            "alt": null,
            "collection": "",
            "height": null,
            "id": "abc-file31",
            "occurrenceKey": null,
            "type": "file",
            "url": null,
            "width": null,
          },
          "type": "media",
        },
        Object {
          "attrs": Object {
            "__contextId": null,
            "__displayType": null,
            "__external": false,
            "__fileMimeType": null,
            "__fileName": null,
            "__fileSize": null,
            "alt": null,
            "collection": "",
            "height": null,
            "id": "abc-file32",
            "occurrenceKey": null,
            "type": "file",
            "url": null,
            "width": null,
          },
          "type": "media",
        },
        Object {
          "attrs": Object {
            "__contextId": null,
            "__displayType": null,
            "__external": false,
            "__fileMimeType": null,
            "__fileName": null,
            "__fileSize": null,
            "alt": null,
            "collection": "",
            "height": null,
            "id": "abc-file33",
            "occurrenceKey": null,
            "type": "file",
            "url": null,
            "width": null,
          },
          "type": "media",
        },
      ],
      "type": "mediaGroup",
    },
    Object {
      "attrs": Object {
        "panelType": "info",
      },
      "content": Array [
        Object {
          "content": Array [
            Object {
              "text": "text",
              "type": "text",
            },
          ],
          "type": "paragraph",
        },
      ],
      "type": "panel",
    },
    Object {
      "content": Array [
        Object {
          "attrs": Object {
            "__contextId": null,
            "__displayType": null,
            "__external": false,
            "__fileMimeType": null,
            "__fileName": null,
            "__fileSize": null,
            "alt": null,
            "collection": "",
            "height": null,
            "id": "abc-file41",
            "occurrenceKey": null,
            "type": "file",
            "url": null,
            "width": null,
          },
          "type": "media",
        },
        Object {
          "attrs": Object {
            "__contextId": null,
            "__displayType": null,
            "__external": false,
            "__fileMimeType": null,
            "__fileName": null,
            "__fileSize": null,
            "alt": null,
            "collection": "",
            "height": null,
            "id": "abc-file42",
            "occurrenceKey": null,
            "type": "file",
            "url": null,
            "width": null,
          },
          "type": "media",
        },
        Object {
          "attrs": Object {
            "__contextId": null,
            "__displayType": null,
            "__external": false,
            "__fileMimeType": null,
            "__fileName": null,
            "__fileSize": null,
            "alt": null,
            "collection": "",
            "height": null,
            "id": "abc-file43",
            "occurrenceKey": null,
            "type": "file",
            "url": null,
            "width": null,
          },
          "type": "media",
        },
      ],
      "type": "mediaGroup",
    },
    Object {
      "attrs": Object {
        "panelType": "info",
      },
      "content": Array [
        Object {
          "content": Array [
            Object {
              "text": "this is a text as well",
              "type": "text",
            },
          ],
          "type": "paragraph",
        },
      ],
      "type": "panel",
    },
  ],
  "type": "doc",
}
`;

exports[`JIRA wiki markup - Macros should lift attachment node when it is inside quote 1`] = `
Object {
  "content": Array [
    Object {
      "content": Array [
        Object {
          "content": Array [
            Object {
              "text": "this is text inside a quote",
              "type": "text",
            },
          ],
          "type": "paragraph",
        },
      ],
      "type": "blockquote",
    },
    Object {
      "content": Array [
        Object {
          "attrs": Object {
            "__contextId": null,
            "__displayType": null,
            "__external": false,
            "__fileMimeType": null,
            "__fileName": null,
            "__fileSize": null,
            "alt": null,
            "collection": "",
            "height": null,
            "id": "abc-file11",
            "occurrenceKey": null,
            "type": "file",
            "url": null,
            "width": null,
          },
          "type": "media",
        },
        Object {
          "attrs": Object {
            "__contextId": null,
            "__displayType": null,
            "__external": false,
            "__fileMimeType": null,
            "__fileName": null,
            "__fileSize": null,
            "alt": null,
            "collection": "",
            "height": null,
            "id": "abc-file12",
            "occurrenceKey": null,
            "type": "file",
            "url": null,
            "width": null,
          },
          "type": "media",
        },
        Object {
          "attrs": Object {
            "__contextId": null,
            "__displayType": null,
            "__external": false,
            "__fileMimeType": null,
            "__fileName": null,
            "__fileSize": null,
            "alt": null,
            "collection": "",
            "height": null,
            "id": "abc-file13",
            "occurrenceKey": null,
            "type": "file",
            "url": null,
            "width": null,
          },
          "type": "media",
        },
      ],
      "type": "mediaGroup",
    },
    Object {
      "content": Array [
        Object {
          "attrs": Object {
            "__contextId": null,
            "__displayType": null,
            "__external": false,
            "__fileMimeType": null,
            "__fileName": null,
            "__fileSize": null,
            "alt": null,
            "collection": "",
            "height": null,
            "id": "abc-file21",
            "occurrenceKey": null,
            "type": "file",
            "url": null,
            "width": null,
          },
          "type": "media",
        },
        Object {
          "attrs": Object {
            "__contextId": null,
            "__displayType": null,
            "__external": false,
            "__fileMimeType": null,
            "__fileName": null,
            "__fileSize": null,
            "alt": null,
            "collection": "",
            "height": null,
            "id": "abc-file22",
            "occurrenceKey": null,
            "type": "file",
            "url": null,
            "width": null,
          },
          "type": "media",
        },
        Object {
          "attrs": Object {
            "__contextId": null,
            "__displayType": null,
            "__external": false,
            "__fileMimeType": null,
            "__fileName": null,
            "__fileSize": null,
            "alt": null,
            "collection": "",
            "height": null,
            "id": "abc-file23",
            "occurrenceKey": null,
            "type": "file",
            "url": null,
            "width": null,
          },
          "type": "media",
        },
        Object {
          "attrs": Object {
            "__contextId": null,
            "__displayType": null,
            "__external": false,
            "__fileMimeType": null,
            "__fileName": null,
            "__fileSize": null,
            "alt": null,
            "collection": "",
            "height": null,
            "id": "abc-file31",
            "occurrenceKey": null,
            "type": "file",
            "url": null,
            "width": null,
          },
          "type": "media",
        },
        Object {
          "attrs": Object {
            "__contextId": null,
            "__displayType": null,
            "__external": false,
            "__fileMimeType": null,
            "__fileName": null,
            "__fileSize": null,
            "alt": null,
            "collection": "",
            "height": null,
            "id": "abc-file32",
            "occurrenceKey": null,
            "type": "file",
            "url": null,
            "width": null,
          },
          "type": "media",
        },
        Object {
          "attrs": Object {
            "__contextId": null,
            "__displayType": null,
            "__external": false,
            "__fileMimeType": null,
            "__fileName": null,
            "__fileSize": null,
            "alt": null,
            "collection": "",
            "height": null,
            "id": "abc-file33",
            "occurrenceKey": null,
            "type": "file",
            "url": null,
            "width": null,
          },
          "type": "media",
        },
      ],
      "type": "mediaGroup",
    },
    Object {
      "content": Array [
        Object {
          "content": Array [
            Object {
              "text": "text",
              "type": "text",
            },
          ],
          "type": "paragraph",
        },
      ],
      "type": "blockquote",
    },
    Object {
      "content": Array [
        Object {
          "attrs": Object {
            "__contextId": null,
            "__displayType": null,
            "__external": false,
            "__fileMimeType": null,
            "__fileName": null,
            "__fileSize": null,
            "alt": null,
            "collection": "",
            "height": null,
            "id": "abc-file41",
            "occurrenceKey": null,
            "type": "file",
            "url": null,
            "width": null,
          },
          "type": "media",
        },
        Object {
          "attrs": Object {
            "__contextId": null,
            "__displayType": null,
            "__external": false,
            "__fileMimeType": null,
            "__fileName": null,
            "__fileSize": null,
            "alt": null,
            "collection": "",
            "height": null,
            "id": "abc-file42",
            "occurrenceKey": null,
            "type": "file",
            "url": null,
            "width": null,
          },
          "type": "media",
        },
        Object {
          "attrs": Object {
            "__contextId": null,
            "__displayType": null,
            "__external": false,
            "__fileMimeType": null,
            "__fileName": null,
            "__fileSize": null,
            "alt": null,
            "collection": "",
            "height": null,
            "id": "abc-file43",
            "occurrenceKey": null,
            "type": "file",
            "url": null,
            "width": null,
          },
          "type": "media",
        },
      ],
      "type": "mediaGroup",
    },
    Object {
      "content": Array [
        Object {
          "content": Array [
            Object {
              "text": "this is text at end of a quote",
              "type": "text",
            },
          ],
          "type": "paragraph",
        },
      ],
      "type": "blockquote",
    },
  ],
  "type": "doc",
}
`;

exports[`JIRA wiki markup - Macros should lift list in a blockquote 1`] = `
Object {
  "content": Array [
    Object {
      "content": Array [
        Object {
          "content": Array [
            Object {
              "text": "something",
              "type": "text",
            },
          ],
          "type": "paragraph",
        },
      ],
      "type": "blockquote",
    },
    Object {
      "content": Array [
        Object {
          "content": Array [
            Object {
              "content": Array [
                Object {
                  "text": "list item",
                  "type": "text",
                },
              ],
              "type": "paragraph",
            },
          ],
          "type": "listItem",
        },
      ],
      "type": "bulletList",
    },
  ],
  "type": "doc",
}
`;

exports[`JIRA wiki markup - Macros should lift rule node when it is inside macro 1`] = `
Object {
  "content": Array [
    Object {
      "attrs": Object {
        "panelType": "info",
      },
      "content": Array [
        Object {
          "content": Array [
            Object {
              "text": "this is a text",
              "type": "text",
            },
          ],
          "type": "paragraph",
        },
      ],
      "type": "panel",
    },
    Object {
      "type": "rule",
    },
    Object {
      "attrs": Object {
        "panelType": "info",
      },
      "content": Array [
        Object {
          "content": Array [
            Object {
              "text": "this is a text as well",
              "type": "text",
            },
          ],
          "type": "paragraph",
        },
      ],
      "type": "panel",
    },
  ],
  "type": "doc",
}
`;

exports[`JIRA wiki markup - Macros should map panel bgColor in colorName to panel type 1`] = `
Object {
  "content": Array [
    Object {
      "attrs": Object {
        "panelType": "error",
      },
      "content": Array [
        Object {
          "content": Array [
            Object {
              "marks": Array [
                Object {
                  "type": "strong",
                },
              ],
              "text": "My Title",
              "type": "text",
            },
          ],
          "type": "paragraph",
        },
        Object {
          "content": Array [
            Object {
              "text": "Panel with nested quote here",
              "type": "text",
            },
          ],
          "type": "paragraph",
        },
      ],
      "type": "panel",
    },
  ],
  "type": "doc",
}
`;

exports[`JIRA wiki markup - Macros should map panel bgColor in hex value to panel type 1`] = `
Object {
  "content": Array [
    Object {
      "attrs": Object {
        "panelType": "success",
      },
      "content": Array [
        Object {
          "content": Array [
            Object {
              "marks": Array [
                Object {
                  "type": "strong",
                },
              ],
              "text": "My Title",
              "type": "text",
            },
          ],
          "type": "paragraph",
        },
        Object {
          "content": Array [
            Object {
              "text": "Panel with nested quote here",
              "type": "text",
            },
          ],
          "type": "paragraph",
        },
      ],
      "type": "panel",
    },
  ],
  "type": "doc",
}
`;

exports[`JIRA wiki markup - Macros should map panel bgColor in hex value to panel type 2`] = `
Object {
  "content": Array [
    Object {
      "attrs": Object {
        "panelType": "info",
      },
      "content": Array [
        Object {
          "content": Array [
            Object {
              "marks": Array [
                Object {
                  "type": "strong",
                },
              ],
              "text": "My Title",
              "type": "text",
            },
          ],
          "type": "paragraph",
        },
        Object {
          "content": Array [
            Object {
              "text": "Panel with nested quote here",
              "type": "text",
            },
          ],
          "type": "paragraph",
        },
      ],
      "type": "panel",
    },
  ],
  "type": "doc",
}
`;

exports[`JIRA wiki markup - Macros should not process code contents 1`] = `
Object {
  "content": Array [
    Object {
      "attrs": Object {
        "language": "xml",
        "uniqueId": null,
      },
      "content": Array [
        Object {
          "text": "this is a {color:red}colored text{color}{noformat}",
          "type": "text",
        },
      ],
      "type": "codeBlock",
    },
  ],
  "type": "doc",
}
`;

exports[`JIRA wiki markup - Macros should not process noformat contents 1`] = `
Object {
  "content": Array [
    Object {
      "attrs": Object {
        "language": null,
        "uniqueId": null,
      },
      "content": Array [
        Object {
          "text": "{code}code inside noformat{code}",
          "type": "text",
        },
      ],
      "type": "codeBlock",
    },
  ],
  "type": "doc",
}
`;

exports[`JIRA wiki markup - Macros should process code with title 1`] = `
Object {
  "content": Array [
    Object {
      "content": Array [
        Object {
          "marks": Array [
            Object {
              "type": "strong",
            },
          ],
          "text": "title",
          "type": "text",
        },
      ],
      "type": "paragraph",
    },
    Object {
      "attrs": Object {
        "language": "java",
        "uniqueId": null,
      },
      "content": Array [
        Object {
          "text": "const i = 0;",
          "type": "text",
        },
      ],
      "type": "codeBlock",
    },
  ],
  "type": "doc",
}
`;

exports[`JIRA wiki markup - Macros should render {anchor} as empty string 1`] = `
Object {
  "content": Array [
    Object {
      "content": Array [
        Object {
          "text": "You cannot see this ",
          "type": "text",
        },
      ],
      "type": "paragraph",
    },
  ],
  "type": "doc",
}
`;

exports[`JIRA wiki markup - Macros should render {loremipsum} as plain text 1`] = `
Object {
  "content": Array [
    Object {
      "content": Array [
        Object {
          "text": "This is plain text {loremipsum}",
          "type": "text",
        },
      ],
      "type": "paragraph",
    },
  ],
  "type": "doc",
}
`;

exports[`JIRA wiki markup - Macros should render green success panel 1`] = `
Object {
  "content": Array [
    Object {
      "attrs": Object {
        "panelType": "success",
      },
      "content": Array [
        Object {
          "content": Array [
            Object {
              "text": "green",
              "type": "text",
            },
          ],
          "type": "paragraph",
        },
      ],
      "type": "panel",
    },
  ],
  "type": "doc",
}
`;

exports[`JIRA wiki markup - Macros should render macro likes {macrolike} as plain text 1`] = `
Object {
  "content": Array [
    Object {
      "content": Array [
        Object {
          "text": "This is plain text {macrolike}",
          "type": "text",
        },
      ],
      "type": "paragraph",
    },
  ],
  "type": "doc",
}
`;

exports[`JIRA wiki markup - Macros should render red error panel 1`] = `
Object {
  "content": Array [
    Object {
      "attrs": Object {
        "panelType": "error",
      },
      "content": Array [
        Object {
          "content": Array [
            Object {
              "text": "red",
              "type": "text",
            },
          ],
          "type": "paragraph",
        },
      ],
      "type": "panel",
    },
  ],
  "type": "doc",
}
`;

exports[`JIRA wiki markup - Macros should render rule node if it is on the top level 1`] = `
Object {
  "content": Array [
    Object {
      "content": Array [
        Object {
          "text": "this is a text",
          "type": "text",
        },
      ],
      "type": "paragraph",
    },
    Object {
      "type": "rule",
    },
    Object {
      "content": Array [
        Object {
          "text": "this is a text as well",
          "type": "text",
        },
      ],
      "type": "paragraph",
    },
  ],
  "type": "doc",
}
`;

exports[`JIRA wiki markup - Macros should split nodes if there is more than one level of depth 1`] = `
Object {
  "content": Array [
    Object {
      "content": Array [
        Object {
          "text": "This is a ",
          "type": "text",
        },
      ],
      "type": "paragraph",
    },
    Object {
      "content": Array [
        Object {
          "content": Array [
            Object {
              "text": "quote with a ",
              "type": "text",
            },
          ],
          "type": "paragraph",
        },
      ],
      "type": "blockquote",
    },
    Object {
      "attrs": Object {
        "panelType": "info",
      },
      "content": Array [
        Object {
          "content": Array [
            Object {
              "text": "panel",
              "type": "text",
            },
          ],
          "type": "paragraph",
        },
      ],
      "type": "panel",
    },
    Object {
      "content": Array [
        Object {
          "content": Array [
            Object {
              "text": " inside",
              "type": "text",
            },
          ],
          "type": "paragraph",
        },
      ],
      "type": "blockquote",
    },
    Object {
      "content": Array [
        Object {
          "text": ".",
          "type": "text",
        },
      ],
      "type": "paragraph",
    },
  ],
  "type": "doc",
}
`;

exports[`JIRA wiki markup - Macros should support strings with a wrong order of macros 1`] = `
Object {
  "content": Array [
    Object {
      "content": Array [
        Object {
          "text": "This is a ",
          "type": "text",
        },
      ],
      "type": "paragraph",
    },
    Object {
      "attrs": Object {
        "panelType": "info",
      },
      "content": Array [
        Object {
          "content": Array [
            Object {
              "text": "panel with a ",
              "type": "text",
            },
          ],
          "type": "paragraph",
        },
      ],
      "type": "panel",
    },
    Object {
      "content": Array [
        Object {
          "type": "paragraph",
        },
      ],
      "type": "blockquote",
    },
    Object {
      "attrs": Object {
        "panelType": "info",
      },
      "content": Array [
        Object {
          "content": Array [
            Object {
              "text": "quote inside",
              "type": "text",
            },
          ],
          "type": "paragraph",
        },
      ],
      "type": "panel",
    },
    Object {
      "content": Array [
        Object {
          "text": " but it is broken",
          "type": "text",
        },
      ],
      "type": "paragraph",
    },
    Object {
      "content": Array [
        Object {
          "type": "paragraph",
        },
      ],
      "type": "blockquote",
    },
  ],
  "type": "doc",
}
`;

exports[`JIRA wiki markup - Macros should title of noformat 1`] = `
Object {
  "content": Array [
    Object {
      "content": Array [
        Object {
          "marks": Array [
            Object {
              "type": "strong",
            },
          ],
          "text": "title",
          "type": "text",
        },
      ],
      "type": "paragraph",
    },
    Object {
      "attrs": Object {
        "language": null,
        "uniqueId": null,
      },
      "content": Array [
        Object {
          "text": "code inside noformat",
          "type": "text",
        },
      ],
      "type": "codeBlock",
    },
  ],
  "type": "doc",
}
`;

exports[`JIRA wiki markup - Macros should transform h1 to Bold and Uppercase under blockquote 1`] = `
Object {
  "content": Array [
    Object {
      "content": Array [
        Object {
          "content": Array [
            Object {
              "marks": Array [
                Object {
                  "type": "strong",
                },
              ],
              "text": "HEADER ONE",
              "type": "text",
            },
          ],
          "type": "paragraph",
        },
      ],
      "type": "blockquote",
    },
  ],
  "type": "doc",
}
`;

exports[`JIRA wiki markup - Macros should transform h2 to Bold and Italic under blockquote 1`] = `
Object {
  "content": Array [
    Object {
      "content": Array [
        Object {
          "content": Array [
            Object {
              "marks": Array [
                Object {
                  "type": "strong",
                },
                Object {
                  "type": "em",
                },
              ],
              "text": "header two",
              "type": "text",
            },
          ],
          "type": "paragraph",
        },
      ],
      "type": "blockquote",
    },
  ],
  "type": "doc",
}
`;

exports[`JIRA wiki markup - Macros should transform h3 to Bold under blockquote 1`] = `
Object {
  "content": Array [
    Object {
      "content": Array [
        Object {
          "content": Array [
            Object {
              "marks": Array [
                Object {
                  "type": "strong",
                },
              ],
              "text": "header three",
              "type": "text",
            },
          ],
          "type": "paragraph",
        },
      ],
      "type": "blockquote",
    },
  ],
  "type": "doc",
}
`;

exports[`JIRA wiki markup - Macros should transform h4 to Bold and Gray under blockquote 1`] = `
Object {
  "content": Array [
    Object {
      "content": Array [
        Object {
          "content": Array [
            Object {
              "marks": Array [
                Object {
                  "type": "strong",
                },
                Object {
                  "attrs": Object {
                    "color": "#97a0af",
                  },
                  "type": "textColor",
                },
              ],
              "text": "header four",
              "type": "text",
            },
          ],
          "type": "paragraph",
        },
      ],
      "type": "blockquote",
    },
  ],
  "type": "doc",
}
`;

exports[`JIRA wiki markup - Macros should transform h5 to Italic and Gray under blockquote 1`] = `
Object {
  "content": Array [
    Object {
      "content": Array [
        Object {
          "content": Array [
            Object {
              "marks": Array [
                Object {
                  "type": "em",
                },
                Object {
                  "attrs": Object {
                    "color": "#97a0af",
                  },
                  "type": "textColor",
                },
              ],
              "text": "header five",
              "type": "text",
            },
          ],
          "type": "paragraph",
        },
      ],
      "type": "blockquote",
    },
  ],
  "type": "doc",
}
`;

exports[`JIRA wiki markup - Macros should transform h6 to Gray under blockquote 1`] = `
Object {
  "content": Array [
    Object {
      "content": Array [
        Object {
          "content": Array [
            Object {
              "marks": Array [
                Object {
                  "attrs": Object {
                    "color": "#97a0af",
                  },
                  "type": "textColor",
                },
              ],
              "text": "header six",
              "type": "text",
            },
          ],
          "type": "paragraph",
        },
      ],
      "type": "blockquote",
    },
  ],
  "type": "doc",
}
`;
